[
	{
		"LAYOUT": "base.xml",
		"SCRIPTS": [
			"<include src='s2r://panorama/scripts/base/language.vjs_c'/>",
			"<include src='s2r://panorama/scripts/base/basepanel.vjs_c'/>",
			"<!-- CORE -->",
			"<include src='s2r://panorama/scripts/core/define_global.vjs_c'/>",
			"<include src='s2r://panorama/scripts/core/vector.vjs_c'/>",
			"<include src='s2r://panorama/scripts/core/color.vjs_c'/>",
			"<include src='s2r://panorama/scripts/core/event_emmiter.vjs_c'/>",
			"<include src='s2r://panorama/scripts/core/thread.vjs_c'/>",
			"<include src='s2r://panorama/scripts/core/sleeper.vjs_c'/>",
			"<include src='s2r://panorama/scripts/core/panels.vjs_c'/>",
			"<!-- Dashboard -->",
			"<include src='s2r://panorama/scripts/base/dashboard.vjs_c'/>",
			"<!-- Menu -->",
			"<include src='s2r://panorama/scripts/menu/base.vjs_c'/>",
			"<include src='s2r://panorama/scripts/menu/toggle.vjs_c'/>",
			"<include src='s2r://panorama/scripts/menu/slider.vjs_c'/>",
			"<include src='s2r://panorama/scripts/menu/switch.vjs_c'/>",
			"<include src='s2r://panorama/scripts/menu/button.vjs_c'/>",
			"<include src='s2r://panorama/scripts/menu/selectors.vjs_c'/>",
			"<include src='s2r://panorama/scripts/menu/tree.vjs_c'/>",
			"<include src='s2r://panorama/scripts/menu/main_menu.vjs_c'/>",
			"<!-- Main -->",
			"<include src='s2r://panorama/scripts/crutches.vjs_c'/>",
			"<include src='s2r://panorama/scripts/open_button.vjs_c'/>",
			"<include src='s2r://panorama/scripts/main.vjs_c'/>"
		]
	},
	{
		"LAYOUT": "base_hud.xml",
		"SCRIPTS": [
			"<include src='s2r://panorama/scripts/base/basepanel.vjs_c'/>",
			"<include src='s2r://panorama/scripts/base/ingame.vjs_c'/>"
		]
	},
	{
		"LAYOUT": "popups/popup_accept_match.xml",
		"SCRIPTS": [
			"<include src='s2r://panorama/scripts/base/accept_match.vjs_c'/>"
		]
	}
]