{
	"version": 1,
	"properties": [
		{
			"name": "wash-color",
			"description": "Specifies a 'wash' color, which means a color that will be blended over the panel and all it's children at composition time, tinting them. The alpha value of the color determines the intensity of the tinting."
		},
		{
			"name": "tooltip-position",
			"description": "Specifies where to position a tooltip relative to this panel. Valid options include 'left', 'top', 'right', and 'bottom'. List up to 4 positions to determine the order that positions are tried if the tooltip doesn't fully fit on screen. Default is 'right left bottom top'. If less than 4 positions are specified, the tooltip first tries the opposite of the specified position along the same axis before switching to the other axis.",
			"syntax": "top | bottom | right | left"
		},
		{
			"name": "tooltip-arrow-position",
			"description": "Specifies where to point the arrow of a tooltip at on this panel. The first value controls how the arrow is positioned horizontally when the tooltip is to the top or bottom of the panel, and the second value controls how the arrow is positioned vertically when the tooltip is to the left or right of the panel. Default is '50% 50%'."
		},
		{
			"name": "tooltip-body-position",
			"description": "Specifies where to position the body of a tooltip relative to this panel. The first value controls how the body is aligned horizontally when the tooltip is to the top or bottom of the panel, and the second value controls how the body is aligned vertically when the tooltip is to the left or right of the panel. 0% means left/top aligned, 50% means center/middle aligned, and 100% means right/bottom aligned. Default is '0% 0%'."
		},
		{
			"name": "horizontal-align",
			"syntax": "center | right | left"
		},
		{
			"name": "flow-children",
			"syntax": "down | down-wrap | right"
		},
		{
			"name": "sound",
			"description": "Specifies a sound name to play when this selector is applied."
		},
		{
			"name": "sound-out",
			"description": "Specifies a sound name to play when this selector is removed."
		},
		{
			"name": "pre-transform-scale2d",
			"description": "Sets 2 dimensional X/Y scale factors that apply to the quad for this panel prior to 3 dimensional transforms. This scaling applies without perspective and leaves the panel centered at the same spot as it started. Default of 1.0 means no scaling, 0.5 would be half size."
		},
		{
			"name": "align"
		},
		{
			"name": "saturation",
			"description": "Sets the amount of saturation to apply to the panel and all it's children during composition. Default of 1.0 means no adjustment, 0.0 means fully desaturated to gray scale, greater than 1.0 means over-saturation."
		},
		{
			"name": "brightness",
			"description": "Sets the brightness that applies to the panel and all it's children during composition. The value is a multiplier on the HSB brightness value."
		},
		{
			"name": "contrast",
			"description": "Sets the contrast that applies to the panel and all it's children during composition."
		}
	]
}